%YAML 1.1
%TAG !u! tag:unity3d.com,2011:
--- !u!114 &11400000
MonoBehaviour:
  m_ObjectHideFlags: 0
  m_CorrespondingSourceObject: {fileID: 0}
  m_PrefabInstance: {fileID: 0}
  m_PrefabAsset: {fileID: 0}
  m_GameObject: {fileID: 0}
  m_Enabled: 1
  m_EditorHideFlags: 0
  m_Script: {fileID: 11500000, guid: d130321e124f63b47acfe045cf6d4257, type: 3}
  m_Name: Mat
  m_EditorClassIdentifier: 
  bgColor: {fileID: 2100000, guid: 4bce6f4830df21845a11ae3d3f007226, type: 2}
  playerColor: {fileID: 2100000, guid: b313c48d55f3e0f489da42229f398f32, type: 2}
  enemyColor: {fileID: 2100000, guid: 33bbaa43c0bba0144a612e30f79503a0, type: 2}
  particleColor: {fileID: 2100000, guid: 4a50b872f7544684c996bc5f681892a2, type: 2}
  progressBarColor1: {fileID: 2100000, guid: 0ef04613d4af3c14c84da9bad295e9b9, type: 2}
  progressBarColor2: {fileID: 2100000, guid: 45ce3749eb242b44a997c8c036e64a99, type: 2}
  moneyColor: {fileID: 2100000, guid: 2ba4de798636e5343bb935c915544546, type: 2}
  enemyObstacleColor: {fileID: 2100000, guid: 7fc435d6175e72f4e806dc6ddfe27f06, type: 2}
  loadingGameBarColor: {fileID: 2100000, guid: dcf38c8e562ead44d969f9daf9d0ac1b, type: 2}
