%YAML 1.1
%TAG !u! tag:unity3d.com,2011:
--- !u!114 &11400000
MonoBehaviour:
  m_ObjectHideFlags: 0
  m_CorrespondingSourceObject: {fileID: 0}
  m_PrefabInstance: {fileID: 0}
  m_PrefabAsset: {fileID: 0}
  m_GameObject: {fileID: 0}
  m_Enabled: 1
  m_EditorHideFlags: 0
  m_Script: {fileID: 11500000, guid: d2f37c7d58e72e94496c6ed0dd2e6fda, type: 3}
  m_Name: Theme2
  m_EditorClassIdentifier: 
  purchased: 1
  price: 100
  bgColor: {r: 0.11764706, g: 0.11764706, b: 0.11764706, a: 1}
  playerColor: {r: 1, g: 1, b: 1, a: 1}
  enemyColor: {r: 1, g: 1, b: 1, a: 1}
  particleColor: {r: 1, g: 1, b: 1, a: 1}
  progressBar1: {r: 0.5, g: 0.5, b: 0.5, a: 1}
  progressBar2: {r: 0.3, g: 0.3, b: 0.3, a: 1}
