%YAML 1.1
%TAG !u! tag:unity3d.com,2011:
--- !u!114 &11400000
MonoBehaviour:
  m_ObjectHideFlags: 0
  m_CorrespondingSourceObject: {fileID: 0}
  m_PrefabInstance: {fileID: 0}
  m_PrefabAsset: {fileID: 0}
  m_GameObject: {fileID: 0}
  m_Enabled: 1
  m_EditorHideFlags: 0
  m_Script: {fileID: 11500000, guid: 56a848d419e0e4a03bbbd903aae25347, type: 3}
  m_Name: AppodealSettings
  m_EditorClassIdentifier: 
  adMobAndroidAppId: ca-app-pub-8234324063813230~2760629781
  adMobIosAppId: 
  accessCoarseLocationPermission: 0
  writeExternalStoragePermission: 1
  accessWifiStatePermission: 1
  vibratePermission: 1
  accessFineLocationPermission: 0
  androidMultidex: 0
  nSUserTrackingUsageDescription: 0
  nSLocationWhenInUseUsageDescription: 0
  nSCalendarsUsageDescription: 0
  nSAppTransportSecurity: 0
  iOSSKAdNetworkItems: 0
  iOsskAdNetworkItemsList:
  - v9wttpbfk9.skadnetwork
  - n38lu8286q.skadnetwork
  - su67r6k2v3.skadnetwork
  - kbd757ywx3.skadnetwork
  - ludvb6z3bs.skadnetwork
  - n9x2a789qt.skadnetwork
  - r26jy69rpl.skadnetwork
  - 5l3tpt7t6e.skadnetwork
  - mlmmfzh3r3.skadnetwork
  - hs6bdukanm.skadnetwork
  - t38b2kh725.skadnetwork
  - 5lm9lj6jb7.skadnetwork
  - v72qych5uu.skadnetwork
  - k674qkevps.skadnetwork
  - tl55sbb4fm.skadnetwork
  - ppxm28t8ap.skadnetwork
  - 97r2b46745.skadnetwork
  - zq492l623r.skadnetwork
  - a2p9lx4jpn.skadnetwork
  - 3rd42ekr43.skadnetwork
  - tl55sbb4fm.skadnetwork
  - 2u9pt9hc89.skadnetwork
  - 8s468mfl3y.skadnetwork
  - glqzh8vgby.skadnetwork
  - n9x2a789qt.skadnetwork
  - prcb7njmu6.skadnetwork
  - v72qych5uu.skadnetwork
  - mlmmfzh3r3.skadnetwork
  - c6k4g5qg8m.skadnetwork
  - 22mmun2rn5.skadnetwork
  - yclnxrl5pm.skadnetwork
  - t38b2kh725.skadnetwork
  - 7ug5zh24hu.skadnetwork
  - 5lm9lj6jb7.skadnetwork
  - 9t245vhmpl.skadnetwork
  - n9x2a789qt.skadnetwork
  - 4fzdc2evr5.skadnetwork
  - gta8lk7p23.skadnetwork
  - ydx93a7ass.skadnetwork
  - 4pfyvq9l8r.skadnetwork
  - 6g9af3uyq4.skadnetwork
  - 4fzdc2evr5.skadnetwork
  - 2fnua5tdw4.skadnetwork
  - ydx93a7ass.skadnetwork
  - cg4yq2srnc.skadnetwork
  - v72qych5uu.skadnetwork
  - mlmmfzh3r3.skadnetwork
  - pwdxu55a5a.skadnetwork
  - c6k4g5qg8m.skadnetwork
  - wg4vff78zm.skadnetwork
  - g28c52eehv.skadnetwork
  - 523jb4fst2.skadnetwork
  - 294l99pt4k.skadnetwork
  - hs6bdukanm.skadnetwork
  - prcb7njmu6.skadnetwork
  - m8dbw4sv7c.skadnetwork
  - 9nlqeag3gk.skadnetwork
  - cj5566h2ga.skadnetwork
  - u679fj5vs4.skadnetwork
  - a7xqa6mtl2.skadnetwork
  - g2y4y55b64.skadnetwork
  - wzmmz9fp6w.skadnetwork
  - yclnxrl5pm.skadnetwork
  - 4468km3ulz.skadnetwork
  - t38b2kh725.skadnetwork
  - 7ug5zh24hu.skadnetwork
  - rx5hdcabgc.skadnetwork
  - 5lm9lj6jb7.skadnetwork
  - 9rd848q2bz.skadnetwork
  - n6fk4nfna4.skadnetwork
  - 7rz58n8ntl.skadnetwork
  - ejvt5qm6ak.skadnetwork
  - 275upjj5gd.skadnetwork
  - kbd757ywx3.skadnetwork
  - 9t245vhmpl.skadnetwork
  - n9x2a789qt.skadnetwork
  - 44jx6755aq.skadnetwork
  - tl55sbb4fm.skadnetwork
  - 2u9pt9hc89.skadnetwork
  - 8s468mfl3y.skadnetwork
  - klf5c3l5u5.skadnetwork
  - ppxm28t8ap.skadnetwork
  - 74b6s63p6l.skadnetwork
  - kbmxgpxpgc.skadnetwork
  - 44n7hlldy6.skadnetwork
  - 5l3tpt7t6e.skadnetwork
  - uw77j35x4d.skadnetwork
  - 6964rsfnh4.skadnetwork
  - 84993kbrcf.skadnetwork
  - pwa73g5rt2.skadnetwork
  - mtkv5xtk9e.skadnetwork
  - e5fvkxwrpn.skadnetwork
  - gta9lk7p23.skadnetwork
  - r45fhb6rf7.skadnetwork
  - 3rd42ekr43.skadnetwork
  - 4dzt52r2t5.skadnetwork
  - f38h382jlk.skadnetwork
  - mlmmfzh3r3.skadnetwork
  - c6k4g5qg8m.skadnetwork
  - 578prtvx9j.skadnetwork
  - 8s468mfl3y.skadnetwork
  - av6w8kgt66.skadnetwork
  - 3rd42ekr43.skadnetwork
  - lr83yxwka7.skadnetwork
  - 4fzdc2evr5.skadnetwork
  - m8dbw4sv7c.skadnetwork
  - wzmmz9fp6w.skadnetwork
  - zq492l623r.skadnetwork
  - t38b2kh725.skadnetwork
  - v72qych5uu.skadnetwork
  - 238da6jt44.skadnetwork
  - 3sh42y64q3.skadnetwork
  - 5a6flpkh64.skadnetwork
  - ppxm28t8ap.skadnetwork
  - 2u9pt9hc89.skadnetwork
  - 22mmun2rn5.skadnetwork
  - hs6bdukanm.skadnetwork
  - mp6xlyr22a.skadnetwork
  - 4468km3ulz.skadnetwork
  - tl55sbb4fm.skadnetwork
  - cstr6suwn9.skadnetwork
  - x44k69ngh6.skadnetwork
  - s39g8k73mm.skadnetwork
  - ydx93a7ass.skadnetwork
  - 44jx6755aq.skadnetwork
  - w9q455wk68.skadnetwork
  - prcb7njmu6.skadnetwork
  - 5lm9lj6jb7.skadnetwork
  - 424m5254lk.skadnetwork
  - 32z4fx6l9h.skadnetwork
  - 488r3q3dtq.skadnetwork
  - zmvfpc5aq8.skadnetwork
  - 9t245vhmpl.skadnetwork
  - kbd757ywx3.skadnetwork
  - f7s53z58qe.skadnetwork
  - glqzh8vgby.skadnetwork
  - 3qy4746246.skadnetwork
  - k674qkevps.skadnetwork
  - 9rd848q2bz.skadnetwork
  - wg4vff78zm.skadnetwork
  - f73kdq92p3.skadnetwork
  - 4pfyvq9l8r.skadnetwork
  - 7ug5zh24hu.skadnetwork
  - yclnxrl5pm.skadnetwork
  - v79kvwwj4g.skadnetwork
  - 5tjdwbrq8w.skadnetwork
  - zq492l623r.skadnetwork
  - wg4vff78zm.skadnetwork
  - 737z793b9f.skadnetwork
  - ydx93a7ass.skadnetwork
  - prcb7njmu6.skadnetwork
  - mls7yz5dvl.skadnetwork
  - 7ug5zh24hu.skadnetwork
  - 44jx6755aq.skadnetwork
  - 2u9pt9hc89.skadnetwork
  - w9q455wk68.skadnetwork
  - yclnxrl5pm.skadnetwork
  - p78axxw29g.skadnetwork
  - 4fzdc2evr5.skadnetwork
  - 4pfyvq9l8r.skadnetwork
  - v72qych5uu.skadnetwork
  - 6xzpu9s2p8.skadnetwork
  - mlmmfzh3r3.skadnetwork
  - c6k4g5qg8m.skadnetwork
  - g28c52eehv.skadnetwork
  - 523jb4fst2.skadnetwork
  - ggvn48r87g.skadnetwork
  - 3sh42y64q3.skadnetwork
  - f38h382jlk.skadnetwork
  - 24t9a8vw3c.skadnetwork
  - hs6bdukanm.skadnetwork
  - 9nlqeag3gk.skadnetwork
  - cj5566h2ga.skadnetwork
  - ejvt5qm6ak.skadnetwork
  - cstr6suwn9.skadnetwork
  - wzmmz9fp6w.skadnetwork
  - 4468km3ulz.skadnetwork
  - 5lm9lj6jb7.skadnetwork
  - zmvfpc5aq8.skadnetwork
  - 9rd848q2bz.skadnetwork
  - 7rz58n8ntl.skadnetwork
  - feyaarzu9v.skadnetwork
  - 9t245vhmpl.skadnetwork
  - n9x2a789qt.skadnetwork
  - tl55sbb4fm.skadnetwork
  - 5a6flpkh64.skadnetwork
  - 8s468mfl3y.skadnetwork
  - glqzh8vgby.skadnetwork
  - 424m5254lk.skadnetwork
  - 5l3tpt7t6e.skadnetwork
  - uw77j35x4d.skadnetwork
  - gta9lk7p23.skadnetwork
  - av6w8kgt66.skadnetwork
  - t38b2kh725.skadnetwork
  - s39g8k73mm.skadnetwork
  - m8dbw4sv7c.skadnetwork
  - lr83yxwka7.skadnetwork
  - kbd757ywx3.skadnetwork
  - cg4yq2srnc.skadnetwork
  - ludvb6z3bs.skadnetwork
  - 22mmun2rn5.skadnetwork
  - su67r6k2v3.skadnetwork
  - 4w7y6s5ca2.skadnetwork
  - klf5c3l5u5.skadnetwork
  - dzg6xy7pwj.skadnetwork
  - y45688jllp.skadnetwork
  - hdw39hrw9y.skadnetwork
  - ppxm28t8ap.skadnetwork
  - 4dzt52r2t5.skadnetwork
  - mtkv5xtk9e.skadnetwork
  - 5tjdwbrq8w.skadnetwork
  - 3rd42ekr43.skadnetwork
  - 32z4fx6l9h.skadnetwork
  - xy9t38ct57.skadnetwork
  - 54nzkqm89y.skadnetwork
  - 9b89h5y424.skadnetwork
  - pwa73g5rt2.skadnetwork
  - 79pbpufp6p.skadnetwork
  - 294l99pt4k.skadnetwork
  - s69wq72ugq.skadnetwork
  - k674qkevps.skadnetwork
  - 578prtvx9j.skadnetwork
  - 2fnua5tdw4.skadnetwork
  - f73kdq92p3.skadnetwork
  - e5fvkxwrpn.skadnetwork
  - n6fk4nfna4.skadnetwork
  - x44k69ngh6.skadnetwork
  - mp6xlyr22a.skadnetwork
  - rx5hdcabgc.skadnetwork
  - 6g9af3uyq4.skadnetwork
  - u679fj5vs4.skadnetwork
  - qqp299437r.skadnetwork
  - 275upjj5gd.skadnetwork
  - 3qcr597p9d.skadnetwork
  - 97r2b46745.skadnetwork
  - g2y4y55b64.skadnetwork
  - 44n7hlldy6.skadnetwork
  - 6p4ks3rnbw.skadnetwork
  - rvh3l7un93.skadnetwork
  - kbmxgpxpgc.skadnetwork
  - 74b6s63p6l.skadnetwork
  - a7xqa6mtl2.skadnetwork
  - zq492l623r.skadnetwork
  - r45fhb6rf7.skadnetwork
  - 84993kbrcf.skadnetwork
  - pwdxu55a5a.skadnetwork
  - 6964rsfnh4.skadnetwork
  - cstr6suwn9.skadnetwork
  - 4fzdc2evr5.skadnetwork
  - 2fnua5tdw4.skadnetwork
  - ydx93a7ass.skadnetwork
  - 5a6flpkh64.skadnetwork
  - p78axxw29g.skadnetwork
  - v72qych5uu.skadnetwork
  - c6k4g5qg8m.skadnetwork
  - s39g8k73mm.skadnetwork
  - 3qy4746246.skadnetwork
  - 3sh42y64q3.skadnetwork
  - f38h382jlk.skadnetwork
  - hs6bdukanm.skadnetwork
  - prcb7njmu6.skadnetwork
  - v4nxqhlyqp.skadnetwork
  - wzmmz9fp6w.skadnetwork
  - yclnxrl5pm.skadnetwork
  - t38b2kh725.skadnetwork
  - 7ug5zh24hu.skadnetwork
  - 9rd848q2bz.skadnetwork
  - n6fk4nfna4.skadnetwork
  - kbd757ywx3.skadnetwork
  - 9t245vhmpl.skadnetwork
  - 4468km3ulz.skadnetwork
  - 2u9pt9hc89.skadnetwork
  - 8s468mfl3y.skadnetwork
  - av6w8kgt66.skadnetwork
  - klf5c3l5u5.skadnetwork
  - ppxm28t8ap.skadnetwork
  - 424m5254lk.skadnetwork
  - uw77j35x4d.skadnetwork
  - 578prtvx9j.skadnetwork
  - 4dzt52r2t5.skadnetwork
  - e5fvkxwrpn.skadnetwork
  - 8c4e2ghe7u.skadnetwork
  - zq492l623r.skadnetwork
  - 3qcr597p9d.skadnetwork
  - 44jx6755aq.skadnetwork
  - 737z793b9f.skadnetwork
  - 8s468mfl3y.skadnetwork
  - av6w8kgt66.skadnetwork
  - c6k4g5qg8m.skadnetwork
  - hs6bdukanm.skadnetwork
  - mlmmfzh3r3.skadnetwork
  - prcb7njmu6.skadnetwork
  - wg4vff78zm.skadnetwork
  - ydx93a7ass.skadnetwork
  - t38b2kh725.skadnetwork
  - s39g8k73mm.skadnetwork
  - m8dbw4sv7c.skadnetwork
  - 4468km3ulz.skadnetwork
  - 8s468mfl3y.skadnetwork
  - 2u9pt9hc89.skadnetwork
  - 4fzdc2evr5.skadnetwork
  - 4pfyvq9l8r.skadnetwork
  - 7ug5zh24hu.skadnetwork
  - 9rd848q2bz.skadnetwork
  - 9t245vhmpl.skadnetwork
  - cj5566h2ga.skadnetwork
  - f38h382jlk.skadnetwork
  - glqzh8vgby.skadnetwork
  - tl55sbb4fm.skadnetwork
  - w9q455wk68.skadnetwork
  - yclnxrl5pm.skadnetwork
  - lr83yxwka7.skadnetwork
  - 9nlqeag3gk.skadnetwork
  - mls7yz5dvl.skadnetwork
  - p78axxw29g.skadnetwork
  - v72qych5uu.skadnetwork
  - 6xzpu9s2p8.skadnetwork
  - g28c52eehv.skadnetwork
  - 523jb4fst2.skadnetwork
  - ggvn48r87g.skadnetwork
  - 3sh42y64q3.skadnetwork
  - 24t9a8vw3c.skadnetwork
  - ejvt5qm6ak.skadnetwork
  - cstr6suwn9.skadnetwork
  - wzmmz9fp6w.skadnetwork
  - 5lm9lj6jb7.skadnetwork
  - zmvfpc5aq8.skadnetwork
  - 7rz58n8ntl.skadnetwork
  - feyaarzu9v.skadnetwork
  - n9x2a789qt.skadnetwork
  - 5a6flpkh64.skadnetwork
  - 424m5254lk.skadnetwork
  - 5l3tpt7t6e.skadnetwork
  - uw77j35x4d.skadnetwork
  - gta9lk7p23.skadnetwork
  - kbd757ywx3.skadnetwork
  - cg4yq2srnc.skadnetwork
  - ludvb6z3bs.skadnetwork
  - 22mmun2rn5.skadnetwork
  - su67r6k2v3.skadnetwork
  - 4w7y6s5ca2.skadnetwork
  - klf5c3l5u5.skadnetwork
  - dzg6xy7pwj.skadnetwork
  - y45688jllp.skadnetwork
  - hdw39hrw9y.skadnetwork
  - ppxm28t8ap.skadnetwork
  - 4dzt52r2t5.skadnetwork
  - mtkv5xtk9e.skadnetwork
  - 5tjdwbrq8w.skadnetwork
  - 3rd42ekr43.skadnetwork
  - klf5c3l5u5.skadnetwork
  - x44k69ngh6.skadnetwork
  - pwa73g5rt2.skadnetwork
  - mp6xlyr22a.skadnetwork
  - qqp299437r.skadnetwork
  - xy9t38ct57.skadnetwork
  - 54nzkqm89y.skadnetwork
  - 9b89h5y424.skadnetwork
  - 32z4fx6l9h.skadnetwork
  - 79pbpufp6p.skadnetwork
  - 275upjj5gd.skadnetwork
  - 294l99pt4k.skadnetwork
  - 2fnua5tdw4.skadnetwork
  - 32z4fx6l9h.skadnetwork
  - 3qcr597p9d.skadnetwork
  - 44n7hlldy6.skadnetwork
  - 54nzkqm89y.skadnetwork
  - 578prtvx9j.skadnetwork
  - 6g9af3uyq4.skadnetwork
  - 6p4ks3rnbw.skadnetwork
  - 79pbpufp6p.skadnetwork
  - 97r2b46745.skadnetwork
  - 9b89h5y424.skadnetwork
  - e5fvkxwrpn.skadnetwork
  - f73kdq92p3.skadnetwork
  - g2y4y55b64.skadnetwork
  - k674qkevps.skadnetwork
  - mp6xlyr22a.skadnetwork
  - n6fk4nfna4.skadnetwork
  - qqp299437r.skadnetwork
  - rx5hdcabgc.skadnetwork
  - s69wq72ugq.skadnetwork
  - u679fj5vs4.skadnetwork
  - xy9t38ct57.skadnetwork
  - kbmxgpxpgc.skadnetwork
  - rvh3l7un93.skadnetwork
  - x8uqf25wch.skadnetwork
  - a7xqa6mtl2.skadnetwork
  - zq492l623r.skadnetwork
  - 74b6s63p6l.skadnetwork
  - r45fhb6rf7.skadnetwork
  - b9bk5wbcq9.skadnetwork
  - bxvub5ada5.skadnetwork
  - 84993kbrcf.skadnetwork
  - 6964rsfnh4.skadnetwork
  - pwdxu55a5a.skadnetwork
  - krvm3zuq6h.skadnetwork
  - c3frkrj4fj.skadnetwork
  - uw77j35x4d.skadnetwork
  - 7ug5zh24hu.skadnetwork
  - hs6bdukanm.skadnetwork
  - 3sh42y64q3.skadnetwork
  - klf5c3l5u5.skadnetwork
  - 5l3tpt7t6e.skadnetwork
  - yclnxrl5pm.skadnetwork
  - wg4vff78zm.skadnetwork
  - 9rd848q2bz.skadnetwork
  - kbd757ywx3.skadnetwork
  - ydx93a7ass.skadnetwork
  - 4pfyvq9l8r.skadnetwork
  - 2u9pt9hc89.skadnetwork
  - c6k4g5qg8m.skadnetwork
  - prcb7njmu6.skadnetwork
  - cj5566h2ga.skadnetwork
  - mls7yz5dvl.skadnetwork
  - 5a6flpkh64.skadnetwork
  - 4468km3ulz.skadnetwork
  - ejvt5qm6ak.skadnetwork
  - 578prtvx9j.skadnetwork
  - ppxm28t8ap.skadnetwork
  - v72qych5uu.skadnetwork
  - f73kdq92p3.skadnetwork
  - 8m87ys6875.skadnetwork
  - 3rd42ekr43.skadnetwork
  - 8s468mfl3y.skadnetwork
  - 7rz58n8ntl.skadnetwork
  - 488r3q3dtq.skadnetwork
  - tl55sbb4fm.skadnetwork
  - f38h382jlk.skadnetwork
  - zmvfpc5aq8.skadnetwork
  - 44jx6755aq.skadnetwork
  - mlmmfzh3r3.skadnetwork
  - 97r2b46745.skadnetwork
  - m8dbw4sv7c.skadnetwork
  - 6xzpu9s2p8.skadnetwork
  - cg4yq2srnc.skadnetwork
  - g28c52eehv.skadnetwork
  - 52fl2v3hgk.skadnetwork
  - pwa73g5rt2.skadnetwork
  - 9nlqeag3gk.skadnetwork
  - p78axxw29g.skadnetwork
  - 4fzdc2evr5.skadnetwork
  - 523jb4fst2.skadnetwork
  - ggvn48r87g.skadnetwork
  - 24t9a8vw3c.skadnetwork
  - cstr6suwn9.skadnetwork
  - wzmmz9fp6w.skadnetwork
  - 5lm9lj6jb7.skadnetwork
  - feyaarzu9v.skadnetwork
  - 9t245vhmpl.skadnetwork
  - n9x2a789qt.skadnetwork
  - glqzh8vgby.skadnetwork
  - 424m5254lk.skadnetwork
  - gta9lk7p23.skadnetwork
  - 5tjdwbrq8w.skadnetwork
  - 22mmun2rn5.skadnetwork
  - mtkv5xtk9e.skadnetwork
  - t38b2kh725.skadnetwork
  - 6g9af3uyq4.skadnetwork
  - u679fj5vs4.skadnetwork
  - 275upjj5gd.skadnetwork
  - rx5hdcabgc.skadnetwork
  - x44k69ngh6.skadnetwork
  - 32z4fx6l9h.skadnetwork
  - w9q455wk68.skadnetwork
  - av6w8kgt66.skadnetwork
  - e5fvkxwrpn.skadnetwork
  - m5mvw97r93.skadnetwork
  - 89z7zv988g.skadnetwork
  - k674qkevps.skadnetwork
  - hb56zgv37p.skadnetwork
  - rvh3l7un93.skadnetwork
  - mp6xlyr22a.skadnetwork
  - qqp299437r.skadnetwork
  - b9bk5wbcq9.skadnetwork
  - bxvub5ada5.skadnetwork
  - kbmxgpxpgc.skadnetwork
  - 6v7lgmsu45.skadnetwork
  - m297p6643m.skadnetwork
  - 294l99pt4k.skadnetwork
  - n6fk4nfna4.skadnetwork
  - r45fhb6rf7.skadnetwork
  - 2fnua5tdw4.skadnetwork
  - 3l6bd9hu43.skadnetwork
  - vcra2ehyfk.skadnetwork
  - 3qcr597p9d.skadnetwork
  - 74b6s63p6l.skadnetwork
